D:\program\Java\JavaFoundation\springboot_quickstart\src\main\java\com\config\Enterprise.java
D:\program\Java\JavaFoundation\springboot_quickstart\src\main\java\com\controller\BookController.java
D:\program\Java\JavaFoundation\springboot_quickstart\src\main\java\com\Application.java
